com\security\config\JwtAuthenticationFilter.class
com\security\auth\AuthenticationResponse.class
com\security\GenerateQuery\QueryGenerator.class
com\security\auth\AuthenticationResponse$AuthenticationResponseBuilder.class
com\security\auth\AuthenticationService.class
com\security\demo\CommonController.class
com\security\config\JwtService.class
com\security\auth\AuthenticationController.class
com\security\hazel_cast\CacheData.class
com\security\config\SecurityConfiguration.class
com\security\SecurityApplication.class
